<svg width="87" height="42" viewBox="0 0 87 42" fill="none" xmlns="http://www.w3.org/2000/svg">
<g id="layer1">
<g id="Group 1000007056">
<path id="path5328" d="M39.3587 19.0382H32.8991V13.5454H28.8043V28.4568H32.8991V22.4832H39.3587V28.4568H43.4453V13.5454H39.3587V19.0382Z" fill="white"/>
<path id="path5330" d="M49.339 19.251C49.6821 17.238 50.7998 16.1865 52.612 16.1865C54.4447 16.1865 55.6897 17.4262 55.7493 19.251H49.339ZM52.6346 13.1506C48.1289 13.1506 45.1066 16.2479 45.1066 20.8937C45.1066 25.7258 48.0939 28.7964 52.764 28.7964C56.4951 28.7964 59.0531 27.0923 60.0126 23.8662H55.5932C55.1925 25.0445 54.2577 25.6358 52.8524 25.6358C50.7402 25.6358 49.4705 24.3899 49.3637 22.2235H60.0126C60.0126 21.6998 60.0434 21.5156 60.0434 21.2661C60.0434 16.2479 57.1834 13.1506 52.6346 13.1506Z" fill="white"/>
<path id="path5332" d="M67.0013 13.4135C65.5528 13.7 61.8361 14.8128 61.8361 20.4591V28.4518H65.9781V21.8502C65.9781 19.4055 66.3192 18.2579 67.3424 17.5173C67.969 17.0181 68.8751 16.742 69.927 16.742C70.3626 16.742 70.5496 16.7747 71.0488 16.8647V13.4811C71.0488 13.4811 69.3969 12.9471 67.0013 13.4135Z" fill="white"/>
<path id="path5334" d="M79.2399 25.69C77.0579 25.69 75.784 23.9265 75.784 20.9827C75.784 18.0082 77.0312 16.2734 79.2399 16.2734C81.4157 16.2734 82.6628 17.9775 82.6628 20.952C82.6628 23.9593 81.4157 25.69 79.2399 25.69ZM79.2399 13.1455C74.5965 13.1475 71.6091 16.2121 71.6091 20.9827C71.6091 25.7207 74.5965 28.7913 79.2399 28.7913C83.8401 28.7913 86.8316 25.7207 86.8316 20.9827C86.8316 16.2121 83.8401 13.1455 79.2399 13.1455Z" fill="white"/>
<path id="path5336" d="M17.5881 11.7096L11.184 6.99829V20.4183L17.5881 15.9975V11.7096Z" fill="white"/>
<path id="path5338" d="M17.5881 30.9V21.6819L11.184 26.2664L17.5881 30.9Z" fill="white"/>
<path id="path5340" d="M0 30.3615L6.4062 34.9971V15.8061L0 11.0947V30.3615Z" fill="white"/>
</g>
</g>
</svg>
