<svg width="52" height="52" viewBox="0 0 52 52" fill="none" xmlns="http://www.w3.org/2000/svg">
<path fill-rule="evenodd" clip-rule="evenodd" d="M26.1706 4.36124L25.7692 4L25.3678 4.36124L3.1622 24.3463L2 25.3923H3.56358H8.51497V46.9978V47.5979H9.11497H42.4234H43.0234V46.9978V25.3923H47.9748H49.5383L48.3761 24.3463L26.1706 4.36124ZM9.11497 24.1923H5.12715L25.7692 5.61444L46.4112 24.1923H42.4234H41.8234V24.7923V46.3979H9.71497V24.7923V24.1923H9.11497ZM34.6514 39.2259V34.7848H16.8869V39.2259H34.6514Z" fill="#FF6600"/>
</svg>
