<svg width="168" height="40" viewBox="0 0 168 40" fill="none" xmlns="http://www.w3.org/2000/svg">
<g id="Layer_1" clip-path="url(#clip0_161_768)">
<g id="Group">
<path id="Vector" d="M120.552 36.4849L123.151 31.5393H118.733L108.013 35.3016L107.985 35.3118L106.381 38.3697H116.023L115.197 39.9387H118.73L119.586 38.3188H121.55L122.515 36.4849H120.55H120.552ZM110.927 36.4849L118.382 33.9059L117.017 36.4849H110.927Z" fill="#E35205"/>
<path id="Vector_2" d="M139.382 31.5393H134.965L124.245 35.3016L124.217 35.3118L122.614 38.3697H132.254L131.428 39.9387H134.962L135.817 38.3188H137.781L138.747 36.4849H136.783L139.382 31.5393ZM127.158 36.4849L134.613 33.9059L133.248 36.4849H127.158Z" fill="#E35205"/>
<path id="Vector_3" d="M155.358 31.8523C154.546 31.5743 153.152 31.4768 150.03 31.4768C147.367 31.4768 145.706 31.5656 144.644 31.7635C142.749 32.1172 141.728 32.8973 140.596 34.8534C139.807 36.2274 139.232 37.482 139.094 38.1282C138.921 38.9432 139.244 39.4556 140.113 39.7379C140.78 39.9417 141.936 39.9999 145.262 39.9999C148.053 39.9999 149.346 39.9591 150.38 39.8383C151.85 39.6739 153.029 39.1135 153.787 38.2184C154.702 37.1487 156.061 34.5842 156.296 33.4868C156.476 32.6412 156.195 32.1521 155.358 31.8523ZM152.323 34.344C152.228 34.7865 151.408 36.3744 150.974 36.958C150.392 37.7105 149.542 37.8939 146.643 37.8939H146.633C144.568 37.8939 143.473 37.8327 143.212 37.4994C143.136 37.4019 143.12 37.2695 143.163 37.0715C143.304 36.4079 144.253 34.7239 144.749 34.2553C145.305 33.7051 146.234 33.545 148.892 33.545C150.225 33.545 151.323 33.593 151.687 33.6673C152 33.7342 152.193 33.8346 152.281 33.9729C152.34 34.069 152.354 34.1898 152.322 34.3426L152.323 34.344Z" fill="#E35205"/>
</g>
<path id="Vector_4" d="M150.589 15.4407H150.124L150.354 14.157H149.935L149.997 13.8267H151.297L151.238 14.157H150.819L150.589 15.4407ZM151.46 13.8267H152.036L152.151 14.7902H152.161L152.616 13.8267H153.235L152.947 15.4407H152.528L152.731 14.2837H152.721L152.187 15.4407H151.899L151.768 14.2837H151.758L151.554 15.4407H151.171L151.46 13.8267Z" fill="#E35205"/>
<path id="Vector_5" d="M167.727 0H151.575L141.906 7.11422L137.095 0H122.909L132.066 13.393L110.799 28.0319H127.318L137.753 20.3704L143.089 28.0304H157.515L147.838 14.2182L167.727 0ZM153.942 26.0816H143.949L138.07 17.6429L126.574 26.0816H117.082L134.582 13.8136L126.451 1.94884H136.217L141.564 9.85919L152.317 1.94884H161.576L145.281 13.7845L153.941 26.0801L153.942 26.0816Z" fill="#E35205"/>
<g id="Group_2">
<path id="Vector_6" d="M105.608 9.97416L113.447 9.96688L114.504 7.97583L106.649 7.98311L105.608 9.97416Z" fill="white"/>
<path id="Vector_7" d="M74.5447 12.7162L75.5663 10.7601L68.2336 10.7718L71.2924 4.91504L67.7141 4.92086L63.6338 12.7322L74.5447 12.7162Z" fill="white"/>
<path id="Vector_8" d="M26.2181 12.7845L29.8197 12.7787L33.8927 4.96875L30.2999 4.97457L28.8069 7.83161L21.9166 7.8418L23.4096 4.98476L19.8342 4.98913L15.7524 12.8005L19.3293 12.7947L20.9009 9.78482L27.7912 9.77463L26.2181 12.7845Z" fill="white"/>
<g id="Group_3">
<path id="Vector_9" d="M65.0668 5.46942C64.7001 5.10702 63.8677 4.928 62.5711 4.92945L52.4998 4.94401L48.4268 12.7554L51.9963 12.7496L53.1066 10.6304L58.3191 10.6232C59.0874 10.6232 59.457 10.7352 59.4308 10.9608C59.4047 11.1879 59.2271 11.6085 59.0263 11.9913L58.6349 12.7408L61.976 12.7365L62.8243 11.1209C63.0935 10.6057 63.1037 10.2462 62.8549 10.0381C62.6046 9.83285 62.1215 9.69458 61.4012 9.62472C62.0604 9.53594 62.5115 9.42532 62.9306 9.28123C62.9306 9.28123 63.8677 8.94357 64.4076 8.18092C64.588 7.92767 64.7117 7.74719 64.8951 7.39643C65.3767 6.47514 65.4335 5.83328 65.0668 5.47088V5.46942ZM61.4012 7.72391C61.1771 8.13143 60.9471 8.40215 60.7114 8.52586C60.4582 8.65976 59.9591 8.72525 59.2126 8.72671H58.7906L54.0976 8.73399L55.0842 6.83609L60.0202 6.82881H60.2807C60.4742 6.82881 60.6416 6.83172 60.7769 6.839C60.9122 6.84627 61.0796 6.87393 61.2775 6.9205C61.4754 6.96708 61.5758 7.05295 61.5816 7.17666C61.586 7.29746 61.5249 7.47939 61.4012 7.72245V7.72391Z" fill="white"/>
<path id="Vector_10" d="M41.1641 4.96014L31.0913 12.7788L34.6842 12.773L36.4842 11.3539L43.5273 11.3437L43.8052 12.7584L47.4185 12.7526L45.6082 4.94995L41.1641 4.95723V4.96014ZM38.5011 9.73691L42.5945 6.45343L43.2203 9.72818L38.5026 9.73546L38.5011 9.73691Z" fill="white"/>
</g>
<g id="Group_4">
<path id="Vector_11" d="M75.9053 12.7146L87.9702 12.6957L88.8928 10.9288L80.4062 10.9404L81.1279 9.55918L89.0325 9.54753L89.8401 8.0004L81.9356 8.01349L82.6326 6.6774L91.1207 6.66575L92.0753 4.88574L79.9856 4.90321L75.9053 12.7146Z" fill="white"/>
<path id="Vector_12" d="M104.593 4.86837L99.1258 8.30177L97.2966 4.88001L93.1436 4.88584L96.5007 10.1778L95.2332 12.687L98.5423 12.6827L99.8083 10.1735L108.704 4.86255L104.593 4.86837Z" fill="white"/>
</g>
<path id="Vector_13" d="M25.4251 16.0112L15.3145 23.8313L18.9451 23.8255L20.7452 22.4064L27.7883 22.3962L28.0662 23.8124L31.6882 23.8065L29.8692 16.0039L25.4251 16.0112ZM22.7621 20.7894L26.8541 17.5059L27.4798 20.7821L22.7621 20.7894Z" fill="white"/>
<path id="Vector_14" d="M98.049 19.286C98.7708 17.9034 98.7548 16.985 98.2876 16.5236C97.8205 16.0637 96.767 15.8352 94.8432 15.8381L92.221 15.8308L89.868 15.8701C87.7594 15.873 86.1543 16.119 85.338 16.608C84.5202 17.097 83.8406 18.1333 83.0126 19.7183L82.2923 21.1592C81.815 22.0718 81.9518 22.7325 82.4189 23.1415C82.886 23.5505 83.6034 23.7543 84.8578 23.7528L87.0638 23.8081L88.1086 23.795L90.6072 23.7557C92.8889 23.7528 94.5958 23.4748 95.4457 22.9246C96.2955 22.373 97.0027 21.2858 97.8511 19.6615L98.0461 19.2875L98.049 19.286ZM94.7123 18.5962C94.638 18.8509 94.5085 19.158 94.3208 19.5189L93.7358 20.5756C93.4375 21.1476 93.0475 21.5056 92.5673 21.6511C92.0857 21.7967 91.3813 21.8695 90.45 21.8709L89.3281 21.884L87.5731 21.8622C86.6549 21.8622 86.1441 21.7399 86.0423 21.4896C85.9404 21.2392 86.0787 20.7546 86.4541 20.0341L86.62 19.7168L86.7306 19.5058C86.8528 19.2715 87.0376 18.976 87.2836 18.6194C87.528 18.2629 87.8744 18.03 88.3211 17.9194C88.7678 17.8088 89.3645 17.7535 90.1095 17.752L92.8205 17.736C93.2309 17.736 93.6078 17.7535 93.9497 17.7928C94.2917 17.832 94.5216 17.9121 94.6439 18.0329C94.7646 18.1537 94.7865 18.3429 94.7137 18.5962H94.7123Z" fill="white"/>
<path id="Vector_15" d="M112.697 15.8833L109.719 21.6046L106.18 15.8935L101.225 15.9007L97.1436 23.7121L100.242 23.7063L103.257 18.0053L106.607 23.6976L111.713 23.6903L115.793 15.8789L112.697 15.8833Z" fill="white"/>
<path id="Vector_16" d="M81.0262 19.4111C80.5591 19.0953 79.6293 18.9395 78.2337 18.941L76.067 18.9337L74.1592 18.9133H73.8187C73.3429 18.9133 72.9907 18.8697 72.7623 18.7809C72.5323 18.6921 72.4945 18.5029 72.6458 18.2133C72.7564 18.0022 72.9514 17.8523 73.2294 17.7621C73.5088 17.6719 73.8173 17.6253 74.152 17.6253L76.4104 17.5642L77.7084 17.5729C78.1086 17.5729 78.3895 17.6267 78.5553 17.7359C78.7198 17.8451 78.73 18.0372 78.5874 18.3093L82.0987 18.3035C82.3068 17.9062 82.4378 17.5933 82.4916 17.3662C82.5455 17.1406 82.528 16.8874 82.4421 16.6065C82.3563 16.3256 82.0609 16.1334 81.553 16.0272C81.0452 15.9239 80.3336 15.8715 79.4154 15.8729L77.1249 15.854C76.7349 15.854 75.9709 15.8671 74.8272 15.8933C73.6863 15.918 72.7317 15.9952 71.9692 16.1247C71.2038 16.2557 70.4529 16.5002 70.0003 16.8583C69.5463 17.2178 69.2931 17.7228 68.9555 18.3705C68.5568 19.1346 68.468 19.7022 68.6907 20.0733C68.9119 20.4445 69.5318 20.6279 70.5475 20.6264L75.6363 20.7006H76.1718C76.7669 20.6992 77.1365 20.7618 77.2821 20.8855C77.4276 21.0092 77.445 21.178 77.3344 21.3876C77.2122 21.6219 77.0303 21.7937 76.7902 21.9043C76.5487 22.0134 76.1266 22.0688 75.5198 22.0702L73.5757 22.1197L72.3097 22.1095C71.78 22.1095 71.3886 22.0702 71.1339 21.9887C70.8793 21.9072 70.8356 21.7064 71.0029 21.3862L71.0553 21.2581L67.5265 21.2639L67.282 21.7325C66.8499 22.5607 66.8382 23.1094 67.2457 23.383C67.6546 23.6552 68.4433 23.7905 69.6103 23.7891L71.7975 23.8211L76.0568 23.7323C77.365 23.7309 78.535 23.5577 79.2815 23.2127C80.028 22.8693 80.4995 22.2361 80.9811 21.3134C81.4788 20.3615 81.4948 19.7269 81.0262 19.4126V19.4111Z" fill="white"/>
<path id="Vector_17" d="M48.8738 15.9777L44.792 23.7877L48.3703 23.7833L52.4506 15.9719L48.8738 15.9777Z" fill="white"/>
<path id="Vector_18" d="M66.7112 20.1521L66.8392 19.9062L67.0721 19.4608C67.8055 18.0563 67.6745 17.1204 67.251 16.6518C66.8247 16.1846 65.9196 15.9517 63.9623 15.9546L54.4265 15.9692L50.3462 23.7805L61.0985 23.7645C62.0604 23.7645 63.0936 23.5899 63.9099 23.2449C64.7263 22.9015 65.1658 22.4998 65.5136 22.0442C65.8599 21.5872 66.0796 21.2845 66.1742 21.136C66.2673 20.9875 66.41 20.7314 66.602 20.3632L66.7126 20.1521H66.7112ZM63.2813 19.813L63.2449 19.8829C62.8462 20.6455 62.4431 21.1637 62.0371 21.4358C61.6297 21.7094 60.9181 21.8463 59.9024 21.8477L54.9271 21.855L57.0007 17.8845L62.0255 17.8773C63.0645 17.8758 63.632 18.0068 63.7324 18.2717C63.8314 18.5351 63.6815 19.0503 63.2828 19.813H63.2813Z" fill="white"/>
<path id="Vector_19" d="M43.7993 15.9836L36.5961 21.8723L35.1162 15.9967L31.5146 16.0011L33.4515 23.8037L37.6453 23.7964L47.4576 15.9778L43.7993 15.9836Z" fill="white"/>
<path id="Vector_20" d="M15.828 21.2058C15.9212 21.0588 16.0638 20.8012 16.2558 20.433L16.3664 20.2219L16.4945 19.976L16.7273 19.5306C17.4607 18.1261 17.3298 17.1903 16.9049 16.7216C16.4785 16.2544 15.5734 16.0215 13.6161 16.0244L4.08033 16.039L0 23.8518L10.7523 23.8358C11.7142 23.8358 12.6033 23.6612 13.4212 23.3162C14.2375 22.9727 14.8196 22.571 15.1674 22.114C15.5137 21.657 15.7349 21.3543 15.828 21.2058ZM12.9366 19.8828L12.9002 19.9527C12.5015 20.7153 12.0984 21.232 11.6924 21.5056C11.2849 21.7793 10.5734 21.9161 9.55764 21.9175L4.58237 21.9248L6.65746 17.9544L11.6822 17.9471C12.7212 17.9456 13.2887 18.0766 13.3891 18.3415C13.4881 18.6049 13.3382 19.1202 12.9409 19.8828H12.9366Z" fill="white"/>
<path id="Vector_21" d="M116.976 16.9545C116.972 16.9137 116.966 16.8831 116.955 16.8657C116.943 16.8482 116.924 16.8351 116.893 16.8278C116.96 16.7973 116.991 16.7405 116.991 16.6721C116.991 16.6328 116.982 16.6008 116.968 16.5731C116.923 16.4887 116.832 16.48 116.749 16.48H116.473V17.164H116.569V16.873H116.729C116.79 16.873 116.831 16.8802 116.845 16.8933C116.863 16.9093 116.876 16.937 116.877 16.985L116.883 17.0709C116.883 17.0956 116.886 17.1408 116.901 17.164H117.01C116.989 17.1378 116.985 17.1029 116.979 17.068L116.973 16.9545H116.976ZM116.733 16.7944H116.57V16.5629H116.733C116.819 16.5629 116.893 16.5731 116.892 16.6736C116.889 16.7769 116.822 16.7929 116.733 16.7929M116.722 16.2544C116.403 16.2544 116.143 16.5076 116.143 16.8162C116.143 17.1248 116.403 17.3736 116.723 17.3736C117.038 17.3736 117.299 17.1233 117.298 16.8147C117.298 16.5062 117.036 16.2544 116.722 16.2544ZM116.723 17.3067C116.442 17.3067 116.214 17.0884 116.214 16.8147C116.214 16.544 116.441 16.3213 116.72 16.3213C116.998 16.3213 117.228 16.5426 117.23 16.8133C117.23 17.0869 117.001 17.3052 116.723 17.3067Z" fill="white"/>
</g>
</g>
<defs>
<clipPath id="clip0_161_768">
<rect width="167.727" height="40" fill="white"/>
</clipPath>
</defs>
</svg>
