<svg width="52" height="44" viewBox="0 0 52 44" fill="none" xmlns="http://www.w3.org/2000/svg">
<path d="M26.8127 5.62703L26.8126 5.62708C26.6913 5.77547 26.3305 5.96385 25.784 5.96381C25.2375 5.96378 24.8766 5.77535 24.7552 5.62689L24.7552 5.62687C22.996 3.47513 19.8848 1 14.964 1C10.5693 1 7.05943 3.11248 4.67317 6.03875C2.30046 8.94841 1 12.703 1 16.1289C1 18.4899 2.01693 20.9839 3.51903 23.405C5.03121 25.8424 7.0975 28.3048 9.33658 30.625C13.816 35.2668 19.0834 39.4381 22.274 41.8261C24.3643 43.391 27.203 43.3913 29.2937 41.8268C32.4843 39.4392 37.7517 35.2689 42.2311 30.6276C44.4701 28.3076 46.5364 25.8453 48.0486 23.4079C49.5507 20.9867 50.5676 18.4924 50.5676 16.1308C50.5676 12.7042 49.2682 8.94913 46.8958 6.03909C44.5098 3.1124 40.9999 1 36.6033 1C31.6835 1 28.572 3.47535 26.8127 5.62703Z" fill="black" stroke="#E86F2C" stroke-width="2" stroke-linecap="round"/>
</svg>
