<svg width="54" height="54" viewBox="0 0 54 54" fill="none" xmlns="http://www.w3.org/2000/svg">
<circle cx="27" cy="27" r="26" fill="#FF6600" stroke="#FF6600" stroke-width="2" stroke-linecap="round"/>
<path d="M24.5936 16.3824C25.635 14.3517 28.5376 14.3517 29.579 16.3824L39.0009 34.7552C39.9569 36.6193 38.6033 38.8348 36.5083 38.8348H17.6644C15.5695 38.8348 14.2158 36.6193 15.1717 34.7552L24.5936 16.3824Z" stroke="black" stroke-width="1.5" stroke-linecap="round"/>
<path d="M26.4136 28.7759L25.0552 24.0217C24.6696 22.6718 25.6831 21.3281 27.087 21.3281C28.4908 21.3281 29.5045 22.6718 29.1187 24.0217L27.7603 28.7759C27.5669 29.4533 26.6072 29.4533 26.4136 28.7759Z" stroke="black" stroke-width="1.5" stroke-linecap="round"/>
<path d="M28.4888 33.9319C28.4888 34.7055 27.8618 35.3326 27.0882 35.3326C26.3146 35.3326 25.6875 34.7055 25.6875 33.9319C25.6875 33.1583 26.3146 32.5312 27.0882 32.5312C27.8618 32.5312 28.4888 33.1583 28.4888 33.9319Z" stroke="black" stroke-width="1.5" stroke-linecap="round"/>
</svg>
