<svg width="43" height="44" viewBox="0 0 43 44" fill="none" xmlns="http://www.w3.org/2000/svg">
<path d="M11.4769 12.5215H1V42.9998H35.288V24.9033" stroke="#FF6600" stroke-width="2"/>
<path d="M21.9551 25.8587V12.6671C21.9551 11.0103 23.2982 9.66712 24.9551 9.66712H32.2406M32.2406 9.66712H40.0515L32.2406 3V9.66712Z" stroke="#FF6600" stroke-width="2"/>
</svg>
