<svg xmlns="http://www.w3.org/2000/svg" width="14.573" height="20" viewBox="0 0 14.573 20">
  <path id="mic_black_24dp" d="M12.364,14.632a3.154,3.154,0,0,0,3.158-3.158V5.158a3.158,3.158,0,1,0-6.316,0v6.316A3.154,3.154,0,0,0,12.364,14.632Zm6.221-3.158a1.05,1.05,0,0,0-1.032.895,5.267,5.267,0,0,1-10.379,0,1.053,1.053,0,0,0-2.084.305,7.361,7.361,0,0,0,6.221,6.084v2.189a1.053,1.053,0,0,0,2.105,0V18.758a7.361,7.361,0,0,0,6.221-6.084A1.052,1.052,0,0,0,18.585,11.474Z" transform="translate(-5.079 -2)" fill="#fff"/>
</svg>
