{
    "accumulator": [],
    "actions": {
        "delete": [
            {
                "_action": "_function",
                "_function": "delete_from_entities",
                "_name": "nltraing_deployment_virtual_store_english",
                "kwargs": {
                    "entities": [
                        {
                            "attribute": "aliases",
                            "filter": {},
                            "model": "feature",
                            "name": "en_feature",
                            "variable_name": "en_feature",
                            "weight": 0.5
                        }
                    ],
                    "name": "deployment_virtual_store_english",
                    "object_json": "{__data}",
                    "pre_object_json": "{_previous_instance}"
                }
            },
            {
                "_action": "_function",
                "_function": "delete_from_entities",
                "_name": "nltraing_deployment_virtual_store_hindi",
                "kwargs": {
                    "entities": [
                        {
                            "attribute": "aliases",
                            "filter": {},
                            "model": "feature",
                            "name": "en_feature",
                            "variable_name": "en_feature",
                            "weight": 0.5
                        }
                    ],
                    "name": "deployment_virtual_store_hindi",
                    "object_json": "{__data}",
                    "pre_object_json": "{_previous_instance}"
                }
            }
        ],
        "write": [
            {
                "_action": "_function",
                "_function": "add_to_entities",
                "_name": "nltraing_deployment_virtual_store_english",
                "kwargs": {
                    "entities": [
                        {
                            "attribute": "aliases",
                            "filter": {},
                            "model": "feature",
                            "name": "en_feature",
                            "variable_name": "en_feature",
                            "weight": 0.5
                        }
                    ],
                    "name": "deployment_virtual_store_english",
                    "object_json": "{__data}",
                    "pre_object_json": "{_previous_instance}"
                }
            },
            {
                "_action": "_function",
                "_function": "add_to_entities",
                "_name": "nltraing_deployment_virtual_store_hindi",
                "kwargs": {
                    "entities": [
                        {
                            "attribute": "aliases",
                            "filter": {},
                            "model": "feature",
                            "name": "en_feature",
                            "variable_name": "en_feature",
                            "weight": 0.5
                        }
                    ],
                    "name": "deployment_virtual_store_hindi",
                    "object_json": "{__data}",
                    "pre_object_json": "{_previous_instance}"
                }
            }
        ]
    },
    "allow_anonymous_view": true,
    "attached_matchers": [],
    "attributes": [
        {
            "atype": "unicode",
            "auto_updater": true,
            "converter": {
                "function": "to_unicode"
            },
            "default": {
                "args": [
                    "name",
                    "type"
                ],
                "function": "name_to_id",
                "kwargs": {
                    "attribute_join": "_",
                    "case": "lower",
                    "compressor": "to_ascii_lower",
                    "is_unique": true,
                    "separator": "_",
                    "skip_empty": true,
                    "translate": [
                        "+?()",
                        "____"
                    ]
                }
            },
            "force_update": false,
            "id": true,
            "indexed": false,
            "name": "feature_id",
            "option_others": false,
            "options": [],
            "placeholder": "Feature Id",
            "required": true,
            "title": "Feature Id",
            "type": "uid",
            "ui_element": "text",
            "unique": false,
            "verbs": [],
            "weight": 0.0
        },
        {
            "atype": "unicode",
            "auto_updater": false,
            "converter": {
                "function": "to_unicode"
            },
            "default": {
                "function": "raise_error"
            },
            "force_update": false,
            "id": false,
            "indexed": true,
            "name": "name",
            "option_others": false,
            "options": [],
            "placeholder": "Name",
            "required": true,
            "title": "Name",
            "type": "category",
            "ui_element": "text",
            "unique": false,
            "verbs": []
        },
        {
            "atype": "unicode",
            "auto_updater": false,
            "converter": {
                "function": "to_unicode"
            },
            "force_update": false,
            "id": false,
            "indexed": false,
            "name": "feature_value",
            "option_others": false,
            "options": [],
            "placeholder": "Feature Value",
            "required": false,
            "title": "Feature Value",
            "type": "text",
            "ui_element": "text",
            "unique": false,
            "verbs": []
        },
        {
            "atype": "stringlist",
            "auto_updater": false,
            "force_update": false,
            "id": false,
            "indexed": false,
            "name": "aliases",
            "option_others": false,
            "options": [],
            "placeholder": "Aliases",
            "required": false,
            "title": "Aliases",
            "type": "list",
            "ui_element": "tags",
            "unique": false,
            "verbs": []
        },
        {
            "atype": "unicode",
            "auto_updater": false,
            "converter": {
                "function": "to_unicode"
            },
            "force_update": false,
            "id": false,
            "indexed": false,
            "name": "unit",
            "option_others": false,
            "options": [],
            "placeholder": "Unit",
            "required": false,
            "title": "Unit",
            "type": "text",
            "ui_element": "text",
            "unique": false,
            "verbs": []
        },
        {
            "atype": "stringlist",
            "auto_updater": false,
            "force_update": false,
            "id": false,
            "indexed": false,
            "name": "type",
            "option_others": false,
            "options": [
                "boolean",
                "categorical",
                "number"
            ],
            "placeholder": "Type",
            "required": false,
            "title": "Type",
            "type": "list",
            "ui_element": "multiselect",
            "unique": false,
            "verbs": []
        },
        {
            "atype": "unicode",
            "auto_updater": false,
            "converter": {
                "function": "to_unicode"
            },
            "force_update": false,
            "id": false,
            "indexed": false,
            "name": "description",
            "option_others": false,
            "options": [],
            "placeholder": "Description",
            "required": false,
            "title": "Description",
            "type": "description",
            "ui_element": "textarea",
            "unique": false,
            "verbs": []
        },
        {
            "atype": "unicode",
            "auto_updater": false,
            "converter": {
                "function": "to_unicode"
            },
            "force_update": false,
            "id": false,
            "indexed": false,
            "name": "feature_image",
            "option_others": false,
            "options": [],
            "placeholder": "Feature Image",
            "required": false,
            "title": "Feature Image",
            "type": "image",
            "ui_element": "image",
            "unique": false,
            "verbs": [],
            "weight": 0.0
        },
        {
            "atype": "unicode",
            "auto_updater": false,
            "converter": {
                "function": "to_unicode"
            },
            "force_update": false,
            "id": false,
            "indexed": false,
            "name": "feature_video",
            "option_others": false,
            "options": [],
            "placeholder": "Feature Video",
            "required": false,
            "title": "Feature Video",
            "type": "video",
            "ui_element": "video",
            "unique": false,
            "verbs": [],
            "weight": 0.0
        },
        {
            "atype": "unicode",
            "auto_updater": false,
            "constraint": {
                "function": "url_validator"
            },
            "converter": {
                "function": "url_converter"
            },
            "force_update": false,
            "id": false,
            "indexed": false,
            "name": "feature_url",
            "option_others": false,
            "options": [],
            "placeholder": "Feature Url",
            "required": false,
            "title": "Feature Url",
            "type": "url",
            "ui_element": "url",
            "unique": false,
            "verbs": [],
            "weight": 0.0
        },
        {
            "atype": "stringlist",
            "auto_updater": false,
            "force_update": false,
            "id": false,
            "indexed": false,
            "name": "unit_pronounciation",
            "option_others": false,
            "options": [],
            "placeholder": "Unit Pronounciation",
            "required": false,
            "title": "Unit Pronounciation",
            "type": "list",
            "ui_element": "tags",
            "unique": false,
            "verbs": []
        }
    ],
    "children": [
        [
            "product_feature",
            null
        ]
    ],
    "data_type": "object_concurrency_large",
    "description": "Feature",
    "emails": [],
    "expand_attributes": true,
    "has_login": false,
    "ids": [
        "feature_id"
    ],
    "images": [
        "feature_image"
    ],
    "locations": [],
    "mobile_numbers": [],
    "model_type": "default",
    "name": "feature",
    "names": [
        "feature_id"
    ],
    "parents": [],
    "permissions": [
        {
            "model": "feature",
            "read_access": true,
            "role": "anonymous"
        }
    ],
    "phone_numbers": [],
    "plural": "features",
    "preferences": {},
    "push_tokens": [],
    "quick_views": {
        "cached": [],
        "default": [
            "feature_id",
            "feature_image"
        ],
        "download": [
            "aliases",
            "description",
            "feature_id",
            "feature_image",
            "feature_url",
            "feature_value",
            "feature_video",
            "name",
            "type",
            "unit",
            "unit_pronounciation"
        ]
    },
    "times": [],
    "timezone": "UTC",
    "title": "Feature",
    "warehouser": []
}