{
    "attributes": [
        {
            "auto_updater": true,
            "default": {
                "args": [
                    "user_id"
                ],
                "function": "make_uuid_timestamp"
            },
            "id": true,
            "name": "session_id",
            "type": "uid"
        },
        {
            "name": "user_id",
            "refers": "parents.person.user_id",
            "required": true
        },
        {
            "auto_updater": true,
            "default": {
                "function": "now"
            },
            "force_update": false,
            "name": "started",
            "type": "timestamp"
        },
        {
            "auto_updater": true,
            "default": {
                "function": "now"
            },
            "force_update": true,
            "name": "ended",
            "type": "timestamp"
        },
        {
            "auto_updater": true,
            "default": {
                "args": [
                    "started",
                    "ended"
                ],
                "function": "time_diff",
                "kwargs": {
                    "units": "minutes"
                }
            },
            "force_update": true,
            "name": "session_time",
            "type": "number"
        },
        {
            "name": "browser",
            "type": "category"
        },
        {
            "name": "device_type",
            "type": "category"
        },
        {
            "name": "os",
            "type": "category"
        },
        {
            "name": "utm_source",
            "required": false,
            "type": "category"
        },
        {
            "name": "utm_medium",
            "required": false,
            "type": "category"
        },
        {
            "name": "utm_campaign",
            "required": false,
            "type": "category"
        },
        {
            "name": "utm_term",
            "required": false,
            "type": "category"
        },
        {
            "name": "deployment_scenario",
            "refers": "parents.deployment.deployment_scenario",
            "required": false
        },
        {
            "name": "deployment_type",
            "refers": "parents.deployment.deployment_type",
            "required": false
        },
        {
            "name": "origin_url",
            "type": "url"
        }
    ],
    "model_type": "default",
    "name": "session",
    "parents": [
        "person",
        "deployment"
    ],
    "permissions": [
        {
            "read_access": true,
            "read_children_only": true,
            "role": "person",
            "write_access": true,
            "write_children_only": true
        }
    ]
}
