{
    "accumulator": [],
    "actions": {},
    "allow_anonymous_view": false,
    "attached_matchers": [],
    "attributes": [
        {
            "atype": "datetime",
            "auto_updater": true,
            "converter": {
                "args": [],
                "function": "to_datetime"
            },
            "default": {
                "function": "now"
            },
            "force_update": false,
            "id": false,
            "indexed": false,
            "jsoner": {
                "args": [],
                "function": "from_datetime"
            },
            "name": "created",
            "option_others": false,
            "options": [],
            "placeholder": "Created",
            "required": false,
            "title": "Created",
            "type": "timestamp",
            "ui_element": "datetime",
            "unique": false,
            "verbs": []
        },
        {
            "atype": "datetime",
            "auto_updater": true,
            "converter": {
                "args": [],
                "function": "to_datetime"
            },
            "default": {
                "function": "now"
            },
            "force_update": true,
            "id": false,
            "indexed": false,
            "jsoner": {
                "args": [],
                "function": "from_datetime"
            },
            "name": "updated",
            "option_others": false,
            "options": [],
            "placeholder": "Updated",
            "required": false,
            "title": "Updated",
            "type": "timestamp",
            "ui_element": "datetime",
            "unique": false,
            "verbs": []
        },
        {
            "atype": "stringlist",
            "auto_updater": false,
            "force_update": false,
            "id": false,
            "indexed": false,
            "name": "colours",
            "option_others": false,
            "options": [],
            "placeholder": "Colours",
            "required": false,
            "title": "Colours",
            "type": "list",
            "ui_element": "tags",
            "unique": false,
            "verbs": []
        },
        {
            "atype": "unicode",
            "auto_updater": true,
            "converter": {
                "function": "to_unicode"
            },
            "default": {
                "args": [],
                "function": "get_brand.brand_for_model_variant_in_hero_moto_corp",
                "is_idempotent": true,
                "kwargs": {}
            },
            "force_update": false,
            "id": false,
            "indexed": false,
            "name": "brand",
            "option_others": false,
            "options": [],
            "placeholder": "Brand",
            "refers": "parents.product.brand",
            "relation_called": "product",
            "required": false,
            "title": "Brand",
            "type": "text",
            "ui_element": "text",
            "unique": false,
            "verbs": []
        },
        {
            "atype": "unicode",
            "auto_updater": false,
            "converter": {
                "function": "to_unicode"
            },
            "default": {
                "function": "raise_error"
            },
            "force_update": false,
            "id": false,
            "indexed": false,
            "name": "product_id",
            "option_others": false,
            "options": "/unique/product/product_id",
            "placeholder": "Product Id",
            "refers": "parents.product.product_id",
            "relation_called": "product",
            "required": true,
            "title": "Product Id",
            "type": "uid",
            "ui_element": "select",
            "unique": false,
            "verbs": [],
            "weight": 0.0
        },
        {
            "atype": "unicode",
            "auto_updater": true,
            "converter": {
                "function": "to_unicode"
            },
            "default": {
                "args": [],
                "function": "get_product_name.product_name_for_model_variant_in_hero_moto_corp",
                "is_idempotent": true,
                "kwargs": {}
            },
            "force_update": false,
            "id": false,
            "indexed": false,
            "name": "product_name",
            "option_others": false,
            "options": [],
            "placeholder": "Product Name",
            "refers": "parents.product.product_name",
            "relation_called": "product",
            "required": false,
            "title": "Product Name",
            "type": "name",
            "ui_element": "text",
            "unique": false,
            "verbs": [],
            "weight": 0.0
        },
        {
            "atype": "stringlist",
            "auto_updater": false,
            "force_update": false,
            "id": false,
            "indexed": false,
            "name": "aliases",
            "option_others": false,
            "options": [],
            "placeholder": "Aliases",
            "required": false,
            "title": "Aliases",
            "type": "list",
            "ui_element": "tags",
            "unique": false,
            "verbs": []
        },
        {
            "atype": "date",
            "auto_updater": true,
            "converter": {
                "args": [],
                "function": "to_date"
            },
            "default": {
                "args": [],
                "function": "get_launch_date.launch_date_for_model_variant_in_hero_moto_corp",
                "is_idempotent": true,
                "kwargs": {}
            },
            "force_update": false,
            "id": false,
            "indexed": false,
            "jsoner": {
                "args": [],
                "function": "from_date"
            },
            "name": "launch_date",
            "option_others": false,
            "options": [],
            "placeholder": "Launch Date",
            "refers": "parents.product.launch_date",
            "relation_called": "product",
            "required": false,
            "title": "Launch Date",
            "type": "date",
            "ui_element": "text",
            "unique": false,
            "verbs": []
        },
        {
            "atype": "stringlist",
            "auto_updater": true,
            "default": {
                "args": [],
                "function": "get_bike_style.bike_style_for_model_variant_in_hero_moto_corp",
                "is_idempotent": true,
                "kwargs": {}
            },
            "force_update": false,
            "id": false,
            "indexed": false,
            "name": "bike_style",
            "option_others": false,
            "options": [],
            "placeholder": "Bike Style",
            "refers": "parents.product.bike_style",
            "relation_called": "product",
            "required": false,
            "title": "Bike Style",
            "type": "list",
            "ui_element": "text",
            "unique": false,
            "verbs": []
        },
        {
            "atype": "stringlist",
            "auto_updater": true,
            "default": {
                "args": [],
                "function": "get_engine_type.engine_type_for_model_variant_in_hero_moto_corp",
                "is_idempotent": true,
                "kwargs": {}
            },
            "force_update": false,
            "id": false,
            "indexed": false,
            "name": "engine_type",
            "option_others": false,
            "options": [],
            "placeholder": "Engine Type",
            "refers": "parents.product.engine_type",
            "relation_called": "product",
            "required": false,
            "title": "Engine Type",
            "type": "list",
            "ui_element": "text",
            "unique": false,
            "verbs": []
        },
        {
            "atype": "bool",
            "auto_updater": true,
            "converter": {
                "function": "to_bool"
            },
            "default": {
                "args": [],
                "function": "get_storage_space.storage_space_for_model_variant_in_hero_moto_corp",
                "is_idempotent": true,
                "kwargs": {}
            },
            "force_update": false,
            "id": false,
            "indexed": false,
            "jsoner": {
                "function": "from_bool"
            },
            "name": "storage_space",
            "option_others": false,
            "options": [],
            "placeholder": "Storage Space",
            "refers": "parents.product.storage_space",
            "relation_called": "product",
            "required": false,
            "title": "Storage Space",
            "type": "bool",
            "ui_element": "text",
            "unique": false,
            "verbs": []
        },
        {
            "atype": "bool",
            "auto_updater": true,
            "converter": {
                "function": "to_bool"
            },
            "default": {
                "args": [],
                "function": "get_side_stand.side_stand_for_model_variant_in_hero_moto_corp",
                "is_idempotent": true,
                "kwargs": {}
            },
            "force_update": false,
            "id": false,
            "indexed": false,
            "jsoner": {
                "function": "from_bool"
            },
            "name": "side_stand",
            "option_others": false,
            "options": [],
            "placeholder": "Side Stand",
            "refers": "parents.product.side_stand",
            "relation_called": "product",
            "required": false,
            "title": "Side Stand",
            "type": "bool",
            "ui_element": "text",
            "unique": false,
            "verbs": []
        },
        {
            "atype": "unicode",
            "auto_updater": true,
            "converter": {
                "function": "to_unicode"
            },
            "default": {
                "args": [],
                "function": "get_height.height_for_model_variant_in_hero_moto_corp",
                "is_idempotent": true,
                "kwargs": {}
            },
            "force_update": false,
            "id": false,
            "indexed": false,
            "name": "height",
            "option_others": false,
            "options": [],
            "placeholder": "Height",
            "refers": "parents.product.height",
            "relation_called": "product",
            "required": false,
            "title": "Height",
            "type": "text",
            "ui_element": "text",
            "unique": false,
            "verbs": []
        },
        {
            "atype": "stringlist",
            "auto_updater": true,
            "default": {
                "args": [],
                "function": "get_gears.gears_for_model_variant_in_hero_moto_corp",
                "is_idempotent": true,
                "kwargs": {}
            },
            "force_update": false,
            "id": false,
            "indexed": false,
            "name": "gears",
            "option_others": false,
            "options": [],
            "placeholder": "Gears",
            "refers": "parents.product.gears",
            "relation_called": "product",
            "required": false,
            "title": "Gears",
            "type": "list",
            "ui_element": "text",
            "unique": false,
            "verbs": []
        },
        {
            "atype": "stringlist",
            "auto_updater": true,
            "default": {
                "args": [],
                "function": "get_transmission_type.transmission_type_for_model_variant_in_hero_moto_corp",
                "is_idempotent": true,
                "kwargs": {}
            },
            "force_update": false,
            "id": false,
            "indexed": false,
            "name": "transmission_type",
            "option_others": false,
            "options": [],
            "placeholder": "Transmission Type",
            "refers": "parents.product.transmission_type",
            "relation_called": "product",
            "required": false,
            "title": "Transmission Type",
            "type": "list",
            "ui_element": "text",
            "unique": false,
            "verbs": []
        },
        {
            "atype": "stringlist",
            "auto_updater": true,
            "default": {
                "args": [],
                "function": "get_brakes_type.brakes_type_for_model_variant_in_hero_moto_corp",
                "is_idempotent": true,
                "kwargs": {}
            },
            "force_update": false,
            "id": false,
            "indexed": false,
            "name": "brakes_type",
            "option_others": false,
            "options": [],
            "placeholder": "Brakes Type",
            "refers": "parents.product.brakes_type",
            "relation_called": "product",
            "required": false,
            "title": "Brakes Type",
            "type": "list",
            "ui_element": "text",
            "unique": false,
            "verbs": []
        },
        {
            "atype": "stringlist",
            "auto_updater": true,
            "default": {
                "args": [],
                "function": "get_gear_format.gear_format_for_model_variant_in_hero_moto_corp",
                "is_idempotent": true,
                "kwargs": {}
            },
            "force_update": false,
            "id": false,
            "indexed": false,
            "name": "gear_format",
            "option_others": false,
            "options": [],
            "placeholder": "Gear Format",
            "refers": "parents.product.gear_format",
            "relation_called": "product",
            "required": false,
            "title": "Gear Format",
            "type": "list",
            "ui_element": "text",
            "unique": false,
            "verbs": []
        },
        {
            "atype": "stringlist",
            "auto_updater": true,
            "default": {
                "args": [],
                "function": "get_display_type.display_type_for_model_variant_in_hero_moto_corp",
                "is_idempotent": true,
                "kwargs": {}
            },
            "force_update": false,
            "id": false,
            "indexed": false,
            "name": "display_type",
            "option_others": false,
            "options": [],
            "placeholder": "Display Type",
            "refers": "parents.product.display_type",
            "relation_called": "product",
            "required": false,
            "title": "Display Type",
            "type": "list",
            "ui_element": "text",
            "unique": false,
            "verbs": []
        },
        {
            "atype": "stringlist",
            "auto_updater": true,
            "default": {
                "args": [],
                "function": "get_tank_capacity.tank_capacity_for_model_variant_in_hero_moto_corp",
                "is_idempotent": true,
                "kwargs": {}
            },
            "force_update": false,
            "id": false,
            "indexed": false,
            "name": "tank_capacity",
            "option_others": false,
            "options": [],
            "placeholder": "Tank Capacity",
            "refers": "parents.product.tank_capacity",
            "relation_called": "product",
            "required": false,
            "title": "Tank Capacity",
            "type": "list",
            "ui_element": "text",
            "unique": false,
            "verbs": []
        },
        {
            "atype": "float",
            "auto_updater": true,
            "converter": {
                "function": "to_float"
            },
            "default": {
                "args": [],
                "function": "get_battery_lifespan.battery_lifespan_for_model_variant_in_hero_moto_corp",
                "is_idempotent": true,
                "kwargs": {}
            },
            "force_update": false,
            "id": false,
            "indexed": false,
            "jsoner": {
                "function": "from_float"
            },
            "name": "battery_lifespan",
            "option_others": false,
            "options": [],
            "placeholder": "Battery Lifespan",
            "refers": "parents.product.battery_lifespan",
            "relation_called": "product",
            "required": false,
            "title": "Battery Lifespan",
            "type": "number",
            "ui_element": "text",
            "unique": false,
            "verbs": []
        },
        {
            "atype": "stringlist",
            "auto_updater": true,
            "default": {
                "args": [],
                "function": "get_tube_type.tube_type_for_model_variant_in_hero_moto_corp",
                "is_idempotent": true,
                "kwargs": {}
            },
            "force_update": false,
            "id": false,
            "indexed": false,
            "name": "tube_type",
            "option_others": false,
            "options": [],
            "placeholder": "Tube Type",
            "refers": "parents.product.tube_type",
            "relation_called": "product",
            "required": false,
            "title": "Tube Type",
            "type": "list",
            "ui_element": "text",
            "unique": false,
            "verbs": []
        },
        {
            "atype": "unicode",
            "auto_updater": true,
            "converter": {
                "function": "to_unicode"
            },
            "default": {
                "args": [],
                "function": "get_wheel_type.wheel_type_for_model_variant_in_hero_moto_corp",
                "is_idempotent": true,
                "kwargs": {}
            },
            "force_update": false,
            "id": false,
            "indexed": false,
            "name": "wheel_type",
            "option_others": false,
            "options": [],
            "placeholder": "Wheel Type",
            "refers": "parents.product.wheel_type",
            "relation_called": "product",
            "required": false,
            "title": "Wheel Type",
            "type": "text",
            "ui_element": "text",
            "unique": false,
            "verbs": []
        },
        {
            "atype": "unicode",
            "auto_updater": true,
            "converter": {
                "function": "to_unicode"
            },
            "default": {
                "args": [],
                "function": "get_wheel_size.wheel_size_for_model_variant_in_hero_moto_corp",
                "is_idempotent": true,
                "kwargs": {}
            },
            "force_update": false,
            "id": false,
            "indexed": false,
            "name": "wheel_size",
            "option_others": false,
            "options": [],
            "placeholder": "Wheel Size",
            "refers": "parents.product.wheel_size",
            "relation_called": "product",
            "required": false,
            "title": "Wheel Size",
            "type": "text",
            "ui_element": "text",
            "unique": false,
            "verbs": []
        },
        {
            "atype": "stringlist",
            "auto_updater": true,
            "default": {
                "args": [],
                "function": "get_tyre_type.tyre_type_for_model_variant_in_hero_moto_corp",
                "is_idempotent": true,
                "kwargs": {}
            },
            "force_update": false,
            "id": false,
            "indexed": false,
            "name": "tyre_type",
            "option_others": false,
            "options": [],
            "placeholder": "Tyre Type",
            "refers": "parents.product.tyre_type",
            "relation_called": "product",
            "required": false,
            "title": "Tyre Type",
            "type": "list",
            "ui_element": "text",
            "unique": false,
            "verbs": []
        },
        {
            "atype": "stringlist",
            "auto_updater": true,
            "default": {
                "args": [],
                "function": "get_oil_type.oil_type_for_model_variant_in_hero_moto_corp",
                "is_idempotent": true,
                "kwargs": {}
            },
            "force_update": false,
            "id": false,
            "indexed": false,
            "name": "oil_type",
            "option_others": false,
            "options": [],
            "placeholder": "Oil Type",
            "refers": "parents.product.oil_type",
            "relation_called": "product",
            "required": false,
            "title": "Oil Type",
            "type": "list",
            "ui_element": "text",
            "unique": false,
            "verbs": []
        },
        {
            "atype": "unicode",
            "auto_updater": true,
            "converter": {
                "function": "to_unicode"
            },
            "default": {
                "args": [],
                "function": "get_pillion_position.pillion_position_for_model_variant_in_hero_moto_corp",
                "is_idempotent": true,
                "kwargs": {}
            },
            "force_update": false,
            "id": false,
            "indexed": false,
            "name": "pillion_position",
            "option_others": false,
            "options": [],
            "placeholder": "Pillion Position",
            "refers": "parents.product.pillion_position",
            "relation_called": "product",
            "required": false,
            "title": "Pillion Position",
            "type": "text",
            "ui_element": "text",
            "unique": false,
            "verbs": []
        },
        {
            "atype": "bool",
            "auto_updater": true,
            "converter": {
                "function": "to_bool"
            },
            "default": {
                "args": [],
                "function": "get_back_rest.back_rest_for_model_variant_in_hero_moto_corp",
                "is_idempotent": true,
                "kwargs": {}
            },
            "force_update": false,
            "id": false,
            "indexed": false,
            "jsoner": {
                "function": "from_bool"
            },
            "name": "back_rest",
            "option_others": false,
            "options": [],
            "placeholder": "Back Rest",
            "refers": "parents.product.back_rest",
            "relation_called": "product",
            "required": false,
            "title": "Back Rest",
            "type": "bool",
            "ui_element": "text",
            "unique": false,
            "verbs": []
        },
        {
            "atype": "bool",
            "auto_updater": true,
            "converter": {
                "function": "to_bool"
            },
            "default": {
                "args": [],
                "function": "get_indicator.indicator_for_model_variant_in_hero_moto_corp",
                "is_idempotent": true,
                "kwargs": {}
            },
            "force_update": false,
            "id": false,
            "indexed": false,
            "jsoner": {
                "function": "from_bool"
            },
            "name": "indicator",
            "option_others": false,
            "options": [],
            "placeholder": "Indicator",
            "refers": "parents.product.indicator",
            "relation_called": "product",
            "required": false,
            "title": "Indicator",
            "type": "bool",
            "ui_element": "text",
            "unique": false,
            "verbs": []
        },
        {
            "atype": "stringlist",
            "auto_updater": true,
            "default": {
                "args": [],
                "function": "get_head_lamp_type.head_lamp_type_for_model_variant_in_hero_moto_corp",
                "is_idempotent": true,
                "kwargs": {}
            },
            "force_update": false,
            "id": false,
            "indexed": false,
            "name": "head_lamp_type",
            "option_others": false,
            "options": [],
            "placeholder": "Head Lamp Type",
            "refers": "parents.product.head_lamp_type",
            "relation_called": "product",
            "required": false,
            "title": "Head Lamp Type",
            "type": "list",
            "ui_element": "text",
            "unique": false,
            "verbs": []
        },
        {
            "atype": "stringlist",
            "auto_updater": true,
            "default": {
                "args": [],
                "function": "get_horn_type.horn_type_for_model_variant_in_hero_moto_corp",
                "is_idempotent": true,
                "kwargs": {}
            },
            "force_update": false,
            "id": false,
            "indexed": false,
            "name": "horn_type",
            "option_others": false,
            "options": [],
            "placeholder": "Horn Type",
            "refers": "parents.product.horn_type",
            "relation_called": "product",
            "required": false,
            "title": "Horn Type",
            "type": "list",
            "ui_element": "text",
            "unique": false,
            "verbs": []
        },
        {
            "atype": "bool",
            "auto_updater": true,
            "converter": {
                "function": "to_bool"
            },
            "default": {
                "args": [],
                "function": "get_visor.visor_for_model_variant_in_hero_moto_corp",
                "is_idempotent": true,
                "kwargs": {}
            },
            "force_update": false,
            "id": false,
            "indexed": false,
            "jsoner": {
                "function": "from_bool"
            },
            "name": "visor",
            "option_others": false,
            "options": [],
            "placeholder": "Visor",
            "refers": "parents.product.visor",
            "relation_called": "product",
            "required": false,
            "title": "Visor",
            "type": "bool",
            "ui_element": "text",
            "unique": false,
            "verbs": []
        },
        {
            "atype": "stringlist",
            "auto_updater": true,
            "default": {
                "args": [],
                "function": "get_driving_modes.driving_modes_for_model_variant_in_hero_moto_corp",
                "is_idempotent": true,
                "kwargs": {}
            },
            "force_update": false,
            "id": false,
            "indexed": false,
            "name": "driving_modes",
            "option_others": false,
            "options": [],
            "placeholder": "Driving Modes",
            "refers": "parents.product.driving_modes",
            "relation_called": "product",
            "required": false,
            "title": "Driving Modes",
            "type": "list",
            "ui_element": "text",
            "unique": false,
            "verbs": []
        },
        {
            "atype": "bool",
            "auto_updater": true,
            "converter": {
                "function": "to_bool"
            },
            "default": {
                "args": [],
                "function": "get_mud_guard.mud_guard_for_model_variant_in_hero_moto_corp",
                "is_idempotent": true,
                "kwargs": {}
            },
            "force_update": false,
            "id": false,
            "indexed": false,
            "jsoner": {
                "function": "from_bool"
            },
            "name": "mud_guard",
            "option_others": false,
            "options": [],
            "placeholder": "Mud Guard",
            "refers": "parents.product.mud_guard",
            "relation_called": "product",
            "required": false,
            "title": "Mud Guard",
            "type": "bool",
            "ui_element": "text",
            "unique": false,
            "verbs": []
        },
        {
            "atype": "bool",
            "auto_updater": true,
            "converter": {
                "function": "to_bool"
            },
            "default": {
                "args": [],
                "function": "get_main_stand.main_stand_for_model_variant_in_hero_moto_corp",
                "is_idempotent": true,
                "kwargs": {}
            },
            "force_update": false,
            "id": false,
            "indexed": false,
            "jsoner": {
                "function": "from_bool"
            },
            "name": "main_stand",
            "option_others": false,
            "options": [],
            "placeholder": "Main Stand",
            "refers": "parents.product.main_stand",
            "relation_called": "product",
            "required": false,
            "title": "Main Stand",
            "type": "bool",
            "ui_element": "text",
            "unique": false,
            "verbs": []
        },
        {
            "atype": "bool",
            "auto_updater": true,
            "converter": {
                "function": "to_bool"
            },
            "default": {
                "args": [],
                "function": "get_helmet_lock.helmet_lock_for_model_variant_in_hero_moto_corp",
                "is_idempotent": true,
                "kwargs": {}
            },
            "force_update": false,
            "id": false,
            "indexed": false,
            "jsoner": {
                "function": "from_bool"
            },
            "name": "helmet_lock",
            "option_others": false,
            "options": [],
            "placeholder": "Helmet Lock",
            "refers": "parents.product.helmet_lock",
            "relation_called": "product",
            "required": false,
            "title": "Helmet Lock",
            "type": "bool",
            "ui_element": "text",
            "unique": false,
            "verbs": []
        },
        {
            "atype": "bool",
            "auto_updater": true,
            "converter": {
                "function": "to_bool"
            },
            "default": {
                "args": [],
                "function": "get_wireless_connectivity.wireless_connectivity_for_model_variant_in_hero_moto_corp",
                "is_idempotent": true,
                "kwargs": {}
            },
            "force_update": false,
            "id": false,
            "indexed": false,
            "jsoner": {
                "function": "from_bool"
            },
            "name": "wireless_connectivity",
            "option_others": false,
            "options": [],
            "placeholder": "Wireless Connectivity",
            "refers": "parents.product.wireless_connectivity",
            "relation_called": "product",
            "required": false,
            "title": "Wireless Connectivity",
            "type": "bool",
            "ui_element": "text",
            "unique": false,
            "verbs": []
        },
        {
            "atype": "float",
            "auto_updater": true,
            "converter": {
                "function": "to_float"
            },
            "default": {
                "args": [],
                "function": "get_number_of_silencers.number_of_silencers_for_model_variant_in_hero_moto_corp",
                "is_idempotent": true,
                "kwargs": {}
            },
            "force_update": false,
            "id": false,
            "indexed": false,
            "jsoner": {
                "function": "from_float"
            },
            "name": "number_of_silencers",
            "option_others": false,
            "options": [],
            "placeholder": "Number Of Silencers",
            "refers": "parents.product.number_of_silencers",
            "relation_called": "product",
            "required": false,
            "title": "Number Of Silencers",
            "type": "number",
            "ui_element": "text",
            "unique": false,
            "verbs": []
        },
        {
            "atype": "bool",
            "auto_updater": false,
            "converter": {
                "function": "to_bool"
            },
            "force_update": false,
            "id": false,
            "indexed": false,
            "jsoner": {
                "function": "from_bool"
            },
            "name": "in_stock",
            "option_others": false,
            "options": [],
            "placeholder": "In Stock",
            "required": false,
            "title": "In Stock",
            "type": "bool",
            "ui_element": "switch",
            "unique": false,
            "verbs": []
        },
        {
            "atype": "bool",
            "auto_updater": false,
            "converter": {
                "function": "to_bool"
            },
            "force_update": false,
            "id": false,
            "indexed": false,
            "jsoner": {
                "function": "from_bool"
            },
            "name": "in_production",
            "option_others": false,
            "options": [],
            "placeholder": "In Production",
            "required": false,
            "title": "In Production",
            "type": "bool",
            "ui_element": "switch",
            "unique": false,
            "verbs": []
        },
        {
            "atype": "float",
            "auto_updater": false,
            "converter": {
                "function": "make_rounded"
            },
            "default": {
                "function": "raise_error"
            },
            "force_update": false,
            "id": false,
            "indexed": false,
            "jsoner": {
                "function": "make_rounded"
            },
            "name": "base_price",
            "option_others": false,
            "options": [],
            "placeholder": "Base Price",
            "required": true,
            "title": "Base Price",
            "type": "price",
            "ui_element": "number",
            "unique": false,
            "verbs": []
        },
        {
            "atype": "unicode",
            "auto_updater": true,
            "converter": {
                "function": "to_unicode"
            },
            "default": {
                "args": [
                    "product_id",
                    "variant_name"
                ],
                "function": "name_to_id",
                "kwargs": {
                    "attribute_join": "_",
                    "is_unique": true,
                    "separator": "_",
                    "skip_empty": true
                }
            },
            "force_update": false,
            "id": true,
            "indexed": false,
            "name": "variant_id",
            "option_others": false,
            "options": [],
            "placeholder": "Variant Id",
            "required": true,
            "title": "Variant Id",
            "type": "uid",
            "ui_element": "text",
            "unique": false,
            "verbs": [],
            "weight": 0.0
        },
        {
            "atype": "unicode",
            "auto_updater": false,
            "converter": {
                "function": "to_unicode"
            },
            "default": {
                "function": "raise_error"
            },
            "force_update": false,
            "id": false,
            "indexed": false,
            "name": "variant_name",
            "option_others": false,
            "options": [],
            "placeholder": "Variant Name",
            "required": true,
            "title": "Variant Name",
            "type": "name",
            "ui_element": "text",
            "unique": false,
            "verbs": [],
            "weight": 0.0
        },
        {
            "atype": "stringlist",
            "auto_updater": true,
            "default": {
                "args": [],
                "function": "get_product_aliases.aliases_for_model_variant_in_hero_moto_corp",
                "is_idempotent": true,
                "kwargs": {}
            },
            "force_update": false,
            "id": false,
            "indexed": false,
            "name": "product_aliases",
            "option_others": false,
            "options": [],
            "placeholder": "Product Aliases",
            "refers": "parents.product.aliases",
            "relation_called": "product",
            "required": false,
            "title": "Product Aliases",
            "type": "list",
            "ui_element": "text",
            "unique": false,
            "verbs": []
        },
        {
            "atype": "stringlist",
            "auto_updater": false,
            "force_update": false,
            "id": false,
            "indexed": false,
            "name": "variant_hi_fives",
            "option_others": false,
            "options": [],
            "placeholder": "Variant Hi Fives",
            "required": false,
            "title": "Variant Hi Fives",
            "type": "list",
            "ui_element": "tags",
            "unique": false,
            "verbs": []
        },
        {
            "atype": "unicode",
            "auto_updater": false,
            "converter": {
                "function": "to_unicode"
            },
            "default": {
                "args": [
                    "product",
                    "product_id",
                    "product_image"
                ],
                "function": "get_from_model"
            },
            "force_update": false,
            "id": false,
            "indexed": false,
            "name": "variant_image",
            "option_others": false,
            "options": [],
            "placeholder": "Variant Image",
            "required": false,
            "title": "Variant Image",
            "type": "image",
            "ui_element": "image",
            "unique": false,
            "verbs": [],
            "weight": 0.0
        },
        {
            "atype": "unicode",
            "auto_updater": false,
            "converter": {
                "function": "to_unicode"
            },
            "default": {
                "args": [
                    "brand",
                    "variant_name"
                ],
                "function": "name_to_id",
                "kwargs": {
                    "attribute_join": " ",
                    "case": "retain",
                    "is_unique": true,
                    "separator": " ",
                    "skip_empty": true,
                    "variant_model_year_suffix": " year Model"
                }
            },
            "force_update": false,
            "id": false,
            "indexed": false,
            "name": "variant_full_name",
            "option_others": false,
            "options": [],
            "placeholder": "Variant Full Name",
            "required": false,
            "title": "Variant Full Name",
            "type": "category",
            "ui_element": "text",
            "unique": false,
            "verbs": []
        },
        {
            "atype": "unicode",
            "auto_updater": false,
            "converter": {
                "function": "to_unicode"
            },
            "force_update": false,
            "id": false,
            "indexed": false,
            "name": "variant_description",
            "option_others": false,
            "options": [],
            "placeholder": "Variant Description",
            "required": false,
            "title": "Variant Description",
            "type": "text",
            "ui_element": "text",
            "unique": false,
            "verbs": []
        }
    ],
    "data_type": "object_concurrency_large",
    "description": "Variant",
    "emails": [],
    "expand_attributes": true,
    "has_login": false,
    "ids": [
        "variant_id"
    ],
    "images": [
        "variant_image"
    ],
    "locations": [],
    "mobile_numbers": [],
    "model_type": "default",
    "name": "variant",
    "names": [
        "product_name",
        "variant_name"
    ],
    "parents": [
        "product"
    ],
    "permissions": [],
    "phone_numbers": [],
    "plural": "variants",
    "preferences": {},
    "push_tokens": [],
    "quick_views": {
        "cached": [],
        "default": [
            "variant_image",
            "variant_name",
            "product_name",
            "variant_id"
        ],
        "download": [
            "aliases",
            "back_rest",
            "base_price",
            "battery_lifespan",
            "bike_style",
            "brakes_type",
            "brand",
            "colours",
            "created",
            "display_type",
            "driving_modes",
            "engine_type",
            "gear_format",
            "gears",
            "head_lamp_type",
            "height",
            "helmet_lock",
            "horn_type",
            "in_production",
            "in_stock",
            "indicator",
            "launch_date",
            "main_stand",
            "mud_guard",
            "number_of_silencers",
            "oil_type",
            "pillion_position",
            "product_aliases",
            "product_id",
            "product_name",
            "side_stand",
            "storage_space",
            "tank_capacity",
            "transmission_type",
            "tube_type",
            "tyre_type",
            "updated",
            "variant_description",
            "variant_full_name",
            "variant_hi_fives",
            "variant_id",
            "variant_image",
            "variant_name",
            "visor",
            "wheel_size",
            "wheel_type",
            "wireless_connectivity"
        ]
    },
    "times": [
        "updated",
        "launch_date",
        "created"
    ],
    "timezone": "UTC",
    "title": "Variant",
    "warehouser": []
}